^H:\DESKTOP\OPENGL\GRAPHICS FOR GAMES\1) YOUR FIRST TRIANGLE\RENDERER.CPP|H:\DESKTOP\OPENGL\GRAPHICS FOR GAMES\1) YOUR FIRST TRIANGLE\TUTORIAL1.CPP
H:\DESKTOP\OPENGL\GRAPHICS FOR GAMES\1) YOUR FIRST TRIANGLE\DEBUG\VC142.PDB
H:\DESKTOP\OPENGL\GRAPHICS FOR GAMES\1) YOUR FIRST TRIANGLE\DEBUG\VC142.IDB
H:\DESKTOP\OPENGL\GRAPHICS FOR GAMES\1) YOUR FIRST TRIANGLE\DEBUG\TUTORIAL1.OBJ
H:\DESKTOP\OPENGL\GRAPHICS FOR GAMES\1) YOUR FIRST TRIANGLE\DEBUG\RENDERER.OBJ
^H:\DESKTOP\OPENGL\GRAPHICS FOR GAMES\1) YOUR FIRST TRIANGLE\RENDERER.CPP
H:\DESKTOP\OPENGL\GRAPHICS FOR GAMES\1) YOUR FIRST TRIANGLE\DEBUG\VC142.PDB
^H:\DESKTOP\OPENGL\GRAPHICS FOR GAMES\1) YOUR FIRST TRIANGLE\TUTORIAL1.CPP
H:\DESKTOP\OPENGL\GRAPHICS FOR GAMES\1) YOUR FIRST TRIANGLE\DEBUG\VC142.PDB
