^C:\USERS\76379\ONEDRIVE\DESKTOP\HOMEWORK\LEARNOPENGL\LEARNOPENGL\NCLGL\CAMERA.CPP
/c /Zi /nologo /W3 /WX- /diagnostics:column /O2 /Oi /Oy- /GL /D GLEW_STATIC /D _MBCS /Gm- /EHsc /MD /GS /Gy /fp:precise /Zc:wchar_t /Zc:forScope /Zc:inline /Fo"RELEASE\\" /Fd"RELEASE\NCLGL.PDB" /Gd /TP /analyze- /FC C:\USERS\76379\ONEDRIVE\DESKTOP\HOMEWORK\LEARNOPENGL\LEARNOPENGL\NCLGL\CAMERA.CPP
^C:\USERS\76379\ONEDRIVE\DESKTOP\HOMEWORK\LEARNOPENGL\LEARNOPENGL\NCLGL\GAMETIMER.CPP
/c /Zi /nologo /W3 /WX- /diagnostics:column /O2 /Oi /Oy- /GL /D GLEW_STATIC /D _MBCS /Gm- /EHsc /MD /GS /Gy /fp:precise /Zc:wchar_t /Zc:forScope /Zc:inline /Fo"RELEASE\\" /Fd"RELEASE\NCLGL.PDB" /Gd /TP /analyze- /FC C:\USERS\76379\ONEDRIVE\DESKTOP\HOMEWORK\LEARNOPENGL\LEARNOPENGL\NCLGL\GAMETIMER.CPP
^C:\USERS\76379\ONEDRIVE\DESKTOP\HOMEWORK\LEARNOPENGL\LEARNOPENGL\NCLGL\HEIGHTMAP.CPP
/c /Zi /nologo /W3 /WX- /diagnostics:column /O2 /Oi /Oy- /GL /D GLEW_STATIC /D _MBCS /Gm- /EHsc /MD /GS /Gy /fp:precise /Zc:wchar_t /Zc:forScope /Zc:inline /Fo"RELEASE\\" /Fd"RELEASE\NCLGL.PDB" /Gd /TP /analyze- /FC C:\USERS\76379\ONEDRIVE\DESKTOP\HOMEWORK\LEARNOPENGL\LEARNOPENGL\NCLGL\HEIGHTMAP.CPP
^C:\USERS\76379\ONEDRIVE\DESKTOP\HOMEWORK\LEARNOPENGL\LEARNOPENGL\NCLGL\KEYBOARD.CPP
/c /Zi /nologo /W3 /WX- /diagnostics:column /O2 /Oi /Oy- /GL /D GLEW_STATIC /D _MBCS /Gm- /EHsc /MD /GS /Gy /fp:precise /Zc:wchar_t /Zc:forScope /Zc:inline /Fo"RELEASE\\" /Fd"RELEASE\NCLGL.PDB" /Gd /TP /analyze- /FC C:\USERS\76379\ONEDRIVE\DESKTOP\HOMEWORK\LEARNOPENGL\LEARNOPENGL\NCLGL\KEYBOARD.CPP
^C:\USERS\76379\ONEDRIVE\DESKTOP\HOMEWORK\LEARNOPENGL\LEARNOPENGL\NCLGL\LIGHT.CPP
/c /Zi /nologo /W3 /WX- /diagnostics:column /O2 /Oi /Oy- /GL /D GLEW_STATIC /D _MBCS /Gm- /EHsc /MD /GS /Gy /fp:precise /Zc:wchar_t /Zc:forScope /Zc:inline /Fo"RELEASE\\" /Fd"RELEASE\NCLGL.PDB" /Gd /TP /analyze- /FC C:\USERS\76379\ONEDRIVE\DESKTOP\HOMEWORK\LEARNOPENGL\LEARNOPENGL\NCLGL\LIGHT.CPP
^C:\USERS\76379\ONEDRIVE\DESKTOP\HOMEWORK\LEARNOPENGL\LEARNOPENGL\NCLGL\MATRIX4.CPP
/c /Zi /nologo /W3 /WX- /diagnostics:column /O2 /Oi /Oy- /GL /D GLEW_STATIC /D _MBCS /Gm- /EHsc /MD /GS /Gy /fp:precise /Zc:wchar_t /Zc:forScope /Zc:inline /Fo"RELEASE\\" /Fd"RELEASE\NCLGL.PDB" /Gd /TP /analyze- /FC C:\USERS\76379\ONEDRIVE\DESKTOP\HOMEWORK\LEARNOPENGL\LEARNOPENGL\NCLGL\MATRIX4.CPP
^C:\USERS\76379\ONEDRIVE\DESKTOP\HOMEWORK\LEARNOPENGL\LEARNOPENGL\NCLGL\MD5ANIM.CPP
/c /Zi /nologo /W3 /WX- /diagnostics:column /O2 /Oi /Oy- /GL /D GLEW_STATIC /D _MBCS /Gm- /EHsc /MD /GS /Gy /fp:precise /Zc:wchar_t /Zc:forScope /Zc:inline /Fo"RELEASE\\" /Fd"RELEASE\NCLGL.PDB" /Gd /TP /analyze- /FC C:\USERS\76379\ONEDRIVE\DESKTOP\HOMEWORK\LEARNOPENGL\LEARNOPENGL\NCLGL\MD5ANIM.CPP
^C:\USERS\76379\ONEDRIVE\DESKTOP\HOMEWORK\LEARNOPENGL\LEARNOPENGL\NCLGL\MD5FILEDATA.CPP
/c /Zi /nologo /W3 /WX- /diagnostics:column /O2 /Oi /Oy- /GL /D GLEW_STATIC /D _MBCS /Gm- /EHsc /MD /GS /Gy /fp:precise /Zc:wchar_t /Zc:forScope /Zc:inline /Fo"RELEASE\\" /Fd"RELEASE\NCLGL.PDB" /Gd /TP /analyze- /FC C:\USERS\76379\ONEDRIVE\DESKTOP\HOMEWORK\LEARNOPENGL\LEARNOPENGL\NCLGL\MD5FILEDATA.CPP
^C:\USERS\76379\ONEDRIVE\DESKTOP\HOMEWORK\LEARNOPENGL\LEARNOPENGL\NCLGL\MD5MESH.CPP
/c /Zi /nologo /W3 /WX- /diagnostics:column /O2 /Oi /Oy- /GL /D GLEW_STATIC /D _MBCS /Gm- /EHsc /MD /GS /Gy /fp:precise /Zc:wchar_t /Zc:forScope /Zc:inline /Fo"RELEASE\\" /Fd"RELEASE\NCLGL.PDB" /Gd /TP /analyze- /FC C:\USERS\76379\ONEDRIVE\DESKTOP\HOMEWORK\LEARNOPENGL\LEARNOPENGL\NCLGL\MD5MESH.CPP
^C:\USERS\76379\ONEDRIVE\DESKTOP\HOMEWORK\LEARNOPENGL\LEARNOPENGL\NCLGL\MD5NODE.CPP
/c /Zi /nologo /W3 /WX- /diagnostics:column /O2 /Oi /Oy- /GL /D GLEW_STATIC /D _MBCS /Gm- /EHsc /MD /GS /Gy /fp:precise /Zc:wchar_t /Zc:forScope /Zc:inline /Fo"RELEASE\\" /Fd"RELEASE\NCLGL.PDB" /Gd /TP /analyze- /FC C:\USERS\76379\ONEDRIVE\DESKTOP\HOMEWORK\LEARNOPENGL\LEARNOPENGL\NCLGL\MD5NODE.CPP
^C:\USERS\76379\ONEDRIVE\DESKTOP\HOMEWORK\LEARNOPENGL\LEARNOPENGL\NCLGL\MESH.CPP
/c /Zi /nologo /W3 /WX- /diagnostics:column /O2 /Oi /Oy- /GL /D GLEW_STATIC /D _MBCS /Gm- /EHsc /MD /GS /Gy /fp:precise /Zc:wchar_t /Zc:forScope /Zc:inline /Fo"RELEASE\\" /Fd"RELEASE\NCLGL.PDB" /Gd /TP /analyze- /FC C:\USERS\76379\ONEDRIVE\DESKTOP\HOMEWORK\LEARNOPENGL\LEARNOPENGL\NCLGL\MESH.CPP
^C:\USERS\76379\ONEDRIVE\DESKTOP\HOMEWORK\LEARNOPENGL\LEARNOPENGL\NCLGL\MOUSE.CPP
/c /Zi /nologo /W3 /WX- /diagnostics:column /O2 /Oi /Oy- /GL /D GLEW_STATIC /D _MBCS /Gm- /EHsc /MD /GS /Gy /fp:precise /Zc:wchar_t /Zc:forScope /Zc:inline /Fo"RELEASE\\" /Fd"RELEASE\NCLGL.PDB" /Gd /TP /analyze- /FC C:\USERS\76379\ONEDRIVE\DESKTOP\HOMEWORK\LEARNOPENGL\LEARNOPENGL\NCLGL\MOUSE.CPP
^C:\USERS\76379\ONEDRIVE\DESKTOP\HOMEWORK\LEARNOPENGL\LEARNOPENGL\NCLGL\OBJMESH.CPP
/c /Zi /nologo /W3 /WX- /diagnostics:column /O2 /Oi /Oy- /GL /D GLEW_STATIC /D _MBCS /Gm- /EHsc /MD /GS /Gy /fp:precise /Zc:wchar_t /Zc:forScope /Zc:inline /Fo"RELEASE\\" /Fd"RELEASE\NCLGL.PDB" /Gd /TP /analyze- /FC C:\USERS\76379\ONEDRIVE\DESKTOP\HOMEWORK\LEARNOPENGL\LEARNOPENGL\NCLGL\OBJMESH.CPP
^C:\USERS\76379\ONEDRIVE\DESKTOP\HOMEWORK\LEARNOPENGL\LEARNOPENGL\NCLGL\QUATERNION.CPP
/c /Zi /nologo /W3 /WX- /diagnostics:column /O2 /Oi /Oy- /GL /D GLEW_STATIC /D _MBCS /Gm- /EHsc /MD /GS /Gy /fp:precise /Zc:wchar_t /Zc:forScope /Zc:inline /Fo"RELEASE\\" /Fd"RELEASE\NCLGL.PDB" /Gd /TP /analyze- /FC C:\USERS\76379\ONEDRIVE\DESKTOP\HOMEWORK\LEARNOPENGL\LEARNOPENGL\NCLGL\QUATERNION.CPP
^C:\USERS\76379\ONEDRIVE\DESKTOP\HOMEWORK\LEARNOPENGL\LEARNOPENGL\NCLGL\SCENENODE.CPP
/c /Zi /nologo /W3 /WX- /diagnostics:column /O2 /Oi /Oy- /GL /D GLEW_STATIC /D _MBCS /Gm- /EHsc /MD /GS /Gy /fp:precise /Zc:wchar_t /Zc:forScope /Zc:inline /Fo"RELEASE\\" /Fd"RELEASE\NCLGL.PDB" /Gd /TP /analyze- /FC C:\USERS\76379\ONEDRIVE\DESKTOP\HOMEWORK\LEARNOPENGL\LEARNOPENGL\NCLGL\SCENENODE.CPP
^C:\USERS\76379\ONEDRIVE\DESKTOP\HOMEWORK\LEARNOPENGL\LEARNOPENGL\NCLGL\SHADER.CPP
/c /Zi /nologo /W3 /WX- /diagnostics:column /O2 /Oi /Oy- /GL /D GLEW_STATIC /D _MBCS /Gm- /EHsc /MD /GS /Gy /fp:precise /Zc:wchar_t /Zc:forScope /Zc:inline /Fo"RELEASE\\" /Fd"RELEASE\NCLGL.PDB" /Gd /TP /analyze- /FC C:\USERS\76379\ONEDRIVE\DESKTOP\HOMEWORK\LEARNOPENGL\LEARNOPENGL\NCLGL\SHADER.CPP
^C:\USERS\76379\ONEDRIVE\DESKTOP\HOMEWORK\LEARNOPENGL\LEARNOPENGL\NCLGL\WINDOW.CPP
/c /Zi /nologo /W3 /WX- /diagnostics:column /O2 /Oi /Oy- /GL /D GLEW_STATIC /D _MBCS /Gm- /EHsc /MD /GS /Gy /fp:precise /Zc:wchar_t /Zc:forScope /Zc:inline /Fo"RELEASE\\" /Fd"RELEASE\NCLGL.PDB" /Gd /TP /analyze- /FC C:\USERS\76379\ONEDRIVE\DESKTOP\HOMEWORK\LEARNOPENGL\LEARNOPENGL\NCLGL\WINDOW.CPP
^H:\DESKTOP\OPENGL\NCLGL\CAMERA.CPP
/c /Zi /nologo /W3 /WX- /diagnostics:column /O2 /Oi /Oy- /GL /D GLEW_STATIC /D _MBCS /Gm- /EHsc /MD /GS /Gy /fp:precise /Zc:wchar_t /Zc:forScope /Zc:inline /Fo"RELEASE\\" /Fd"RELEASE\NCLGL.PDB" /Gd /TP /analyze- /FC H:\DESKTOP\OPENGL\NCLGL\CAMERA.CPP
^H:\DESKTOP\OPENGL\NCLGL\FRUSTUM.CPP
/c /Zi /nologo /W3 /WX- /diagnostics:column /O2 /Oi /Oy- /GL /D GLEW_STATIC /D _MBCS /Gm- /EHsc /MD /GS /Gy /fp:precise /Zc:wchar_t /Zc:forScope /Zc:inline /Fo"RELEASE\\" /Fd"RELEASE\NCLGL.PDB" /Gd /TP /analyze- /FC H:\DESKTOP\OPENGL\NCLGL\FRUSTUM.CPP
^H:\DESKTOP\OPENGL\NCLGL\GAMETIMER.CPP
/c /Zi /nologo /W3 /WX- /diagnostics:column /O2 /Oi /Oy- /GL /D GLEW_STATIC /D _MBCS /Gm- /EHsc /MD /GS /Gy /fp:precise /Zc:wchar_t /Zc:forScope /Zc:inline /Fo"RELEASE\\" /Fd"RELEASE\NCLGL.PDB" /Gd /TP /analyze- /FC H:\DESKTOP\OPENGL\NCLGL\GAMETIMER.CPP
^H:\DESKTOP\OPENGL\NCLGL\HEIGHTMAP.CPP
/c /Zi /nologo /W3 /WX- /diagnostics:column /O2 /Oi /Oy- /GL /D GLEW_STATIC /D _MBCS /Gm- /EHsc /MD /GS /Gy /fp:precise /Zc:wchar_t /Zc:forScope /Zc:inline /Fo"RELEASE\\" /Fd"RELEASE\NCLGL.PDB" /Gd /TP /analyze- /FC H:\DESKTOP\OPENGL\NCLGL\HEIGHTMAP.CPP
^H:\DESKTOP\OPENGL\NCLGL\KEYBOARD.CPP
/c /Zi /nologo /W3 /WX- /diagnostics:column /O2 /Oi /Oy- /GL /D GLEW_STATIC /D _MBCS /Gm- /EHsc /MD /GS /Gy /fp:precise /Zc:wchar_t /Zc:forScope /Zc:inline /Fo"RELEASE\\" /Fd"RELEASE\NCLGL.PDB" /Gd /TP /analyze- /FC H:\DESKTOP\OPENGL\NCLGL\KEYBOARD.CPP
^H:\DESKTOP\OPENGL\NCLGL\LIGHT.CPP
/c /Zi /nologo /W3 /WX- /diagnostics:column /O2 /Oi /Oy- /GL /D GLEW_STATIC /D _MBCS /Gm- /EHsc /MD /GS /Gy /fp:precise /Zc:wchar_t /Zc:forScope /Zc:inline /Fo"RELEASE\\" /Fd"RELEASE\NCLGL.PDB" /Gd /TP /analyze- /FC H:\DESKTOP\OPENGL\NCLGL\LIGHT.CPP
^H:\DESKTOP\OPENGL\NCLGL\MATRIX4.CPP
/c /Zi /nologo /W3 /WX- /diagnostics:column /O2 /Oi /Oy- /GL /D GLEW_STATIC /D _MBCS /Gm- /EHsc /MD /GS /Gy /fp:precise /Zc:wchar_t /Zc:forScope /Zc:inline /Fo"RELEASE\\" /Fd"RELEASE\NCLGL.PDB" /Gd /TP /analyze- /FC H:\DESKTOP\OPENGL\NCLGL\MATRIX4.CPP
^H:\DESKTOP\OPENGL\NCLGL\MD5ANIM.CPP
/c /Zi /nologo /W3 /WX- /diagnostics:column /O2 /Oi /Oy- /GL /D GLEW_STATIC /D _MBCS /Gm- /EHsc /MD /GS /Gy /fp:precise /Zc:wchar_t /Zc:forScope /Zc:inline /Fo"RELEASE\\" /Fd"RELEASE\NCLGL.PDB" /Gd /TP /analyze- /FC H:\DESKTOP\OPENGL\NCLGL\MD5ANIM.CPP
^H:\DESKTOP\OPENGL\NCLGL\MD5FILEDATA.CPP
/c /Zi /nologo /W3 /WX- /diagnostics:column /O2 /Oi /Oy- /GL /D GLEW_STATIC /D _MBCS /Gm- /EHsc /MD /GS /Gy /fp:precise /Zc:wchar_t /Zc:forScope /Zc:inline /Fo"RELEASE\\" /Fd"RELEASE\NCLGL.PDB" /Gd /TP /analyze- /FC H:\DESKTOP\OPENGL\NCLGL\MD5FILEDATA.CPP
^H:\DESKTOP\OPENGL\NCLGL\MD5MESH.CPP
/c /Zi /nologo /W3 /WX- /diagnostics:column /O2 /Oi /Oy- /GL /D GLEW_STATIC /D _MBCS /Gm- /EHsc /MD /GS /Gy /fp:precise /Zc:wchar_t /Zc:forScope /Zc:inline /Fo"RELEASE\\" /Fd"RELEASE\NCLGL.PDB" /Gd /TP /analyze- /FC H:\DESKTOP\OPENGL\NCLGL\MD5MESH.CPP
^H:\DESKTOP\OPENGL\NCLGL\MD5NODE.CPP
/c /Zi /nologo /W3 /WX- /diagnostics:column /O2 /Oi /Oy- /GL /D GLEW_STATIC /D _MBCS /Gm- /EHsc /MD /GS /Gy /fp:precise /Zc:wchar_t /Zc:forScope /Zc:inline /Fo"RELEASE\\" /Fd"RELEASE\NCLGL.PDB" /Gd /TP /analyze- /FC H:\DESKTOP\OPENGL\NCLGL\MD5NODE.CPP
^H:\DESKTOP\OPENGL\NCLGL\MESH.CPP
/c /Zi /nologo /W3 /WX- /diagnostics:column /O2 /Oi /Oy- /GL /D GLEW_STATIC /D _MBCS /Gm- /EHsc /MD /GS /Gy /fp:precise /Zc:wchar_t /Zc:forScope /Zc:inline /Fo"RELEASE\\" /Fd"RELEASE\NCLGL.PDB" /Gd /TP /analyze- /FC H:\DESKTOP\OPENGL\NCLGL\MESH.CPP
^H:\DESKTOP\OPENGL\NCLGL\MOUSE.CPP
/c /Zi /nologo /W3 /WX- /diagnostics:column /O2 /Oi /Oy- /GL /D GLEW_STATIC /D _MBCS /Gm- /EHsc /MD /GS /Gy /fp:precise /Zc:wchar_t /Zc:forScope /Zc:inline /Fo"RELEASE\\" /Fd"RELEASE\NCLGL.PDB" /Gd /TP /analyze- /FC H:\DESKTOP\OPENGL\NCLGL\MOUSE.CPP
^H:\DESKTOP\OPENGL\NCLGL\OBJMESH.CPP
/c /Zi /nologo /W3 /WX- /diagnostics:column /O2 /Oi /Oy- /GL /D GLEW_STATIC /D _MBCS /Gm- /EHsc /MD /GS /Gy /fp:precise /Zc:wchar_t /Zc:forScope /Zc:inline /Fo"RELEASE\\" /Fd"RELEASE\NCLGL.PDB" /Gd /TP /analyze- /FC H:\DESKTOP\OPENGL\NCLGL\OBJMESH.CPP
^H:\DESKTOP\OPENGL\NCLGL\PLANE.CPP
/c /Zi /nologo /W3 /WX- /diagnostics:column /O2 /Oi /Oy- /GL /D GLEW_STATIC /D _MBCS /Gm- /EHsc /MD /GS /Gy /fp:precise /Zc:wchar_t /Zc:forScope /Zc:inline /Fo"RELEASE\\" /Fd"RELEASE\NCLGL.PDB" /Gd /TP /analyze- /FC H:\DESKTOP\OPENGL\NCLGL\PLANE.CPP
^H:\DESKTOP\OPENGL\NCLGL\QUATERNION.CPP
/c /Zi /nologo /W3 /WX- /diagnostics:column /O2 /Oi /Oy- /GL /D GLEW_STATIC /D _MBCS /Gm- /EHsc /MD /GS /Gy /fp:precise /Zc:wchar_t /Zc:forScope /Zc:inline /Fo"RELEASE\\" /Fd"RELEASE\NCLGL.PDB" /Gd /TP /analyze- /FC H:\DESKTOP\OPENGL\NCLGL\QUATERNION.CPP
^H:\DESKTOP\OPENGL\NCLGL\SCENENODE.CPP
/c /Zi /nologo /W3 /WX- /diagnostics:column /O2 /Oi /Oy- /GL /D GLEW_STATIC /D _MBCS /Gm- /EHsc /MD /GS /Gy /fp:precise /Zc:wchar_t /Zc:forScope /Zc:inline /Fo"RELEASE\\" /Fd"RELEASE\NCLGL.PDB" /Gd /TP /analyze- /FC H:\DESKTOP\OPENGL\NCLGL\SCENENODE.CPP
^H:\DESKTOP\OPENGL\NCLGL\SHADER.CPP
/c /Zi /nologo /W3 /WX- /diagnostics:column /O2 /Oi /Oy- /GL /D GLEW_STATIC /D _MBCS /Gm- /EHsc /MD /GS /Gy /fp:precise /Zc:wchar_t /Zc:forScope /Zc:inline /Fo"RELEASE\\" /Fd"RELEASE\NCLGL.PDB" /Gd /TP /analyze- /FC H:\DESKTOP\OPENGL\NCLGL\SHADER.CPP
^H:\DESKTOP\OPENGL\NCLGL\WINDOW.CPP
/c /Zi /nologo /W3 /WX- /diagnostics:column /O2 /Oi /Oy- /GL /D GLEW_STATIC /D _MBCS /Gm- /EHsc /MD /GS /Gy /fp:precise /Zc:wchar_t /Zc:forScope /Zc:inline /Fo"RELEASE\\" /Fd"RELEASE\NCLGL.PDB" /Gd /TP /analyze- /FC H:\DESKTOP\OPENGL\NCLGL\WINDOW.CPP
^H:\DESKTOP\OPENGL\NCLGL\OGLRENDERER.CPP
/c /Zi /nologo /W3 /WX- /diagnostics:column /O2 /Oi /Oy- /GL /D GLEW_STATIC /D _MBCS /Gm- /EHsc /MD /GS /Gy /fp:precise /Zc:wchar_t /Zc:forScope /Zc:inline /Fo"RELEASE\\" /Fd"RELEASE\NCLGL.PDB" /Gd /TP /analyze- /FC H:\DESKTOP\OPENGL\NCLGL\OGLRENDERER.CPP
