^H:\DESKTOP\OPENGL\GRAPHICS FOR GAMES\8) INDEX BUFFERS\DEBUG\RENDERER.OBJ|H:\DESKTOP\OPENGL\GRAPHICS FOR GAMES\8) INDEX BUFFERS\DEBUG\TUTORIAL8.OBJ
H:\DESKTOP\OPENGL\GRAPHICS FOR GAMES\DEBUG\TUTORIAL 08 - INDEX BUFFERS.EXE
H:\DESKTOP\OPENGL\GRAPHICS FOR GAMES\DEBUG\TUTORIAL 08 - INDEX BUFFERS.ILK
H:\DESKTOP\OPENGL\GRAPHICS FOR GAMES\DEBUG\TUTORIAL 08 - INDEX BUFFERS.PDB
