^H:\DESKTOP\OPENGL\GRAPHICS FOR GAMES\8) INDEX BUFFERS\DEBUG\RENDERER.OBJ|H:\DESKTOP\OPENGL\GRAPHICS FOR GAMES\8) INDEX BUFFERS\DEBUG\TUTORIAL8.OBJ
/OUT:"H:\DESKTOP\OPENGL\GRAPHICS FOR GAMES\DEBUG\TUTORIAL 08 - INDEX BUFFERS.EXE" /INCREMENTAL /NOLOGO KERNEL32.LIB USER32.LIB GDI32.LIB WINSPOOL.LIB COMDLG32.LIB ADVAPI32.LIB SHELL32.LIB OLE32.LIB OLEAUT32.LIB UUID.LIB ODBC32.LIB ODBCCP32.LIB /MANIFEST /MANIFESTUAC:"level='asInvoker' uiAccess='false'" /manifest:embed /DEBUG:FASTLINK /PDB:"H:\DESKTOP\OPENGL\GRAPHICS FOR GAMES\DEBUG\TUTORIAL 08 - INDEX BUFFERS.PDB" /TLBID:1 /DYNAMICBASE /NXCOMPAT /IMPLIB:"H:\DESKTOP\OPENGL\GRAPHICS FOR GAMES\DEBUG\TUTORIAL 08 - INDEX BUFFERS.LIB" /MACHINE:X86 DEBUG\RENDERER.OBJ
DEBUG\TUTORIAL8.OBJ
^C:\USERS\76379\ONEDRIVE\DESKTOP\HOMEWORK\LEARNOPENGL\GRAPHICS FOR GAMES\8) INDEX BUFFERS\DEBUG\RENDERER.OBJ|C:\USERS\76379\ONEDRIVE\DESKTOP\HOMEWORK\LEARNOPENGL\GRAPHICS FOR GAMES\8) INDEX BUFFERS\DEBUG\TUTORIAL8.OBJ
/OUT:"C:\USERS\76379\ONEDRIVE\DESKTOP\HOMEWORK\LEARNOPENGL\GRAPHICS FOR GAMES\DEBUG\TUTORIAL 08 - INDEX BUFFERS.EXE" /INCREMENTAL /NOLOGO KERNEL32.LIB USER32.LIB GDI32.LIB WINSPOOL.LIB COMDLG32.LIB ADVAPI32.LIB SHELL32.LIB OLE32.LIB OLEAUT32.LIB UUID.LIB ODBC32.LIB ODBCCP32.LIB /MANIFEST /MANIFESTUAC:"level='asInvoker' uiAccess='false'" /manifest:embed /DEBUG:FASTLINK /PDB:"C:\USERS\76379\ONEDRIVE\DESKTOP\HOMEWORK\LEARNOPENGL\GRAPHICS FOR GAMES\DEBUG\TUTORIAL 08 - INDEX BUFFERS.PDB" /TLBID:1 /DYNAMICBASE /NXCOMPAT /IMPLIB:"C:\USERS\76379\ONEDRIVE\DESKTOP\HOMEWORK\LEARNOPENGL\GRAPHICS FOR GAMES\DEBUG\TUTORIAL 08 - INDEX BUFFERS.LIB" /MACHINE:X86 DEBUG\RENDERER.OBJ
DEBUG\TUTORIAL8.OBJ
