^C:\USERS\76379\ONEDRIVE\DESKTOP\HOMEWORK\LEARNOPENGL\GRAPHICS FOR GAMES\2) MATRIX TRANSFORMATIONS\CAMERA.CPP
/c /ZI /JMC /nologo /W3 /WX- /diagnostics:column /Od /Oy- /D _MBCS /Gm- /EHsc /RTC1 /MDd /GS /fp:precise /Zc:wchar_t /Zc:forScope /Zc:inline /Fo"DEBUG\\" /Fd"DEBUG\VC142.PDB" /Gd /TP /analyze- /FC C:\USERS\76379\ONEDRIVE\DESKTOP\HOMEWORK\LEARNOPENGL\GRAPHICS FOR GAMES\2) MATRIX TRANSFORMATIONS\CAMERA.CPP
^C:\USERS\76379\ONEDRIVE\DESKTOP\HOMEWORK\LEARNOPENGL\GRAPHICS FOR GAMES\2) MATRIX TRANSFORMATIONS\RENDERER.CPP
/c /ZI /JMC /nologo /W3 /WX- /diagnostics:column /Od /Oy- /D _MBCS /Gm- /EHsc /RTC1 /MDd /GS /fp:precise /Zc:wchar_t /Zc:forScope /Zc:inline /Fo"DEBUG\\" /Fd"DEBUG\VC142.PDB" /Gd /TP /analyze- /FC C:\USERS\76379\ONEDRIVE\DESKTOP\HOMEWORK\LEARNOPENGL\GRAPHICS FOR GAMES\2) MATRIX TRANSFORMATIONS\RENDERER.CPP
^C:\USERS\76379\ONEDRIVE\DESKTOP\HOMEWORK\LEARNOPENGL\GRAPHICS FOR GAMES\2) MATRIX TRANSFORMATIONS\TUTORIAL2.CPP
/c /ZI /JMC /nologo /W3 /WX- /diagnostics:column /Od /Oy- /D _MBCS /Gm- /EHsc /RTC1 /MDd /GS /fp:precise /Zc:wchar_t /Zc:forScope /Zc:inline /Fo"DEBUG\\" /Fd"DEBUG\VC142.PDB" /Gd /TP /analyze- /FC C:\USERS\76379\ONEDRIVE\DESKTOP\HOMEWORK\LEARNOPENGL\GRAPHICS FOR GAMES\2) MATRIX TRANSFORMATIONS\TUTORIAL2.CPP
^H:\DESKTOP\OPENGL\GRAPHICS FOR GAMES\2) MATRIX TRANSFORMATIONS\CAMERA.CPP
/c /ZI /JMC /nologo /W3 /WX- /diagnostics:column /Od /Oy- /D _MBCS /Gm- /EHsc /RTC1 /MDd /GS /fp:precise /Zc:wchar_t /Zc:forScope /Zc:inline /Fo"DEBUG\\" /Fd"DEBUG\VC142.PDB" /Gd /TP /analyze- /FC H:\DESKTOP\OPENGL\GRAPHICS FOR GAMES\2) MATRIX TRANSFORMATIONS\CAMERA.CPP
^H:\DESKTOP\OPENGL\GRAPHICS FOR GAMES\2) MATRIX TRANSFORMATIONS\RENDERER.CPP
/c /ZI /JMC /nologo /W3 /WX- /diagnostics:column /Od /Oy- /D _MBCS /Gm- /EHsc /RTC1 /MDd /GS /fp:precise /Zc:wchar_t /Zc:forScope /Zc:inline /Fo"DEBUG\\" /Fd"DEBUG\VC142.PDB" /Gd /TP /analyze- /FC H:\DESKTOP\OPENGL\GRAPHICS FOR GAMES\2) MATRIX TRANSFORMATIONS\RENDERER.CPP
^H:\DESKTOP\OPENGL\GRAPHICS FOR GAMES\2) MATRIX TRANSFORMATIONS\TUTORIAL2.CPP
/c /ZI /JMC /nologo /W3 /WX- /diagnostics:column /Od /Oy- /D _MBCS /Gm- /EHsc /RTC1 /MDd /GS /fp:precise /Zc:wchar_t /Zc:forScope /Zc:inline /Fo"DEBUG\\" /Fd"DEBUG\VC142.PDB" /Gd /TP /analyze- /FC H:\DESKTOP\OPENGL\GRAPHICS FOR GAMES\2) MATRIX TRANSFORMATIONS\TUTORIAL2.CPP
