^H:\DESKTOP\OPENGL\GRAPHICS FOR GAMES\11) PER FRAGMENT LIGHTING A\DEBUG\RENDERER.OBJ|H:\DESKTOP\OPENGL\GRAPHICS FOR GAMES\11) PER FRAGMENT LIGHTING A\DEBUG\TUTORIAL11.OBJ
H:\DESKTOP\OPENGL\GRAPHICS FOR GAMES\DEBUG\TUTORIAL 11 - REAL-TIME LIGHTING A.EXE
H:\DESKTOP\OPENGL\GRAPHICS FOR GAMES\DEBUG\TUTORIAL 11 - REAL-TIME LIGHTING A.ILK
H:\DESKTOP\OPENGL\GRAPHICS FOR GAMES\DEBUG\TUTORIAL 11 - REAL-TIME LIGHTING A.PDB
