# Blender v2.78 (sub 0) OBJ File: ''
# www.blender.org
mtllib cube.mtl
v -1.000000 0.0 1.000000
v -1.000000 2.0 1.000000
v -1.000000 0.0 -1.000000
v -1.000000 2.0 -1.000000
v 1.000000 0.0 1.000000
v 1.000000 2.0 1.000000
v 1.000000 0.0 -1.000000
v 1.000000 2.0 -1.000000
vt 0.0002 0.6669
vt 0.3331 0.9998
vt 0.0002 0.9998
vt 0.6669 0.0002
vt 0.9998 0.3331
vt 0.6669 0.3331
vt 0.3331 0.6665
vt 0.0002 0.3335
vt 0.3331 0.3335
vt 0.6665 0.6665
vt 0.3335 0.3335
vt 0.6665 0.3335
vt 0.3335 0.3331
vt 0.6665 0.0002
vt 0.6665 0.3331
vt 0.0002 0.3331
vt 0.3331 0.0002
vt 0.3331 0.3331
vt 0.3331 0.6669
vt 0.9998 0.0002
vt 0.0002 0.6665
vt 0.3335 0.6665
vt 0.3335 0.0002
vt 0.0002 0.0002
vn -1.0000 0.0000 0.0000
vn 0.0000 0.0000 -1.0000
vn 1.0000 0.0000 0.0000
vn 0.0000 0.0000 1.0000
vn 0.0000 -1.0000 0.0000
vn 0.0000 1.0000 0.0000
usemtl None
s off
f 2/1/1 3/2/1 1/3/1
f 4/4/2 7/5/2 3/6/2
f 8/7/3 5/8/3 7/9/3
f 6/10/4 1/11/4 5/12/4
f 7/13/5 1/14/5 3/15/5
f 4/16/6 6/17/6 8/18/6
f 2/1/1 4/19/1 3/2/1
f 4/4/2 8/20/2 7/5/2
f 8/7/3 6/21/3 5/8/3
f 6/10/4 2/22/4 1/11/4
f 7/13/5 5/23/5 1/14/5
f 4/16/6 2/24/6 6/17/6
