# Blender MTL File: 'None'
# Material Count: 3

newmtl Material__49
Ns 10.000002
Ka 1.000000 1.000000 1.000000
Kd 0.588000 0.588000 0.588000
Ks 0.000000 0.000000 0.000000
Ke 0.0 0.0 0.0
Ni 1.500000
d 1.000000
illum 1

newmtl wire_154185229
Ns 31.999996
Ka 1.000000 1.000000 1.000000
Kd 0.603900 0.725500 0.898000
Ks 0.350000 0.350000 0.350000
Ke 0.0 0.0 0.0
Ni 1.450000
d 1.000000
illum 2

newmtl wire_224086086
Ns 31.999996
Ka 1.000000 1.000000 1.000000
Kd 0.878400 0.337300 0.337300
Ks 0.350000 0.350000 0.350000
Ke 0.0 0.0 0.0
Ni 1.450000
d 1.000000
illum 2
