# Blender v2.80 (sub 75) OBJ File: ''
# www.blender.org
mtllib tree.mtl
o tree.001
v -1.200000 1.883466 1.200000
v -1.200000 1.383466 -1.200000
v -1.200000 1.383466 1.200000
v -1.200000 1.883466 -1.200000
v -1.000000 2.083466 1.000000
v -1.000000 1.883466 -1.000000
v -1.000000 1.883466 1.000000
v -1.000000 2.083466 -1.000000
v -0.799999 2.283466 0.800000
v -0.799999 2.083466 -0.800000
v -0.799999 2.083466 0.800000
v -0.799999 2.283467 -0.800000
v -0.700000 2.483466 0.600000
v -0.700000 2.283466 -0.600000
v -0.700000 2.283466 0.600000
v -0.700000 2.483466 -0.600000
v -0.299999 0.083466 0.300000
v -0.299999 -0.016534 -0.300000
v -0.299999 -0.016534 0.300000
v -0.299999 0.083466 -0.300000
v -0.299999 1.383466 0.300000
v -0.299999 1.383466 -0.300000
v 0.300000 -0.016534 0.300000
v 0.300000 -0.016534 -0.300000
v 0.300000 0.083466 0.300000
v 0.300000 0.083466 -0.300000
v 0.300000 1.383466 0.300000
v 0.300000 1.383466 -0.300000
v 0.700001 2.283466 0.600000
v 0.700001 2.283466 -0.600000
v 0.700001 2.483466 0.600000
v 0.700001 2.483466 -0.600000
v 0.800000 2.083466 0.800000
v 0.800000 2.083466 -0.800000
v 0.800000 2.283466 0.800000
v 0.800000 2.283467 -0.800000
v 1.000000 1.883466 1.000000
v 1.000000 1.883466 -1.000000
v 1.000000 2.083466 1.000000
v 1.000000 2.083466 -1.000000
v 1.200001 1.383466 1.200000
v 1.200001 1.383466 -1.200000
v 1.200001 1.883466 1.200000
v 1.200001 1.883466 -1.200000
v 1.200001 1.383466 1.200000
v -1.200000 1.883466 1.200000
v -1.200000 1.383466 1.200000
v 1.200001 1.883466 1.200000
v 1.000000 1.883466 1.000000
v -1.000000 2.083466 1.000000
v -1.000000 1.883466 1.000000
v 1.000000 2.083466 1.000000
v 0.800000 2.083466 0.800000
v -0.799999 2.283466 0.800000
v -0.799999 2.083466 0.800000
v 0.800000 2.283466 0.800000
v 0.700001 2.283466 0.600000
v -0.700000 2.483466 0.600000
v -0.700000 2.283466 0.600000
v 0.700001 2.483466 0.600000
v 0.300000 -0.016534 0.300000
v -0.299999 0.083466 0.300000
v -0.299999 -0.016534 0.300000
v 0.300000 0.083466 0.300000
v -0.299999 1.383466 0.300000
v 0.300000 1.383466 0.300000
v -0.299999 -0.016534 -0.300000
v -0.299999 0.083466 -0.300000
v 0.300000 -0.016534 -0.300000
v -0.299999 1.383466 -0.300000
v 0.300000 0.083466 -0.300000
v 0.300000 1.383466 -0.300000
v -0.700000 2.283466 -0.600000
v -0.700000 2.483466 -0.600000
v 0.700001 2.283466 -0.600000
v 0.700001 2.483466 -0.600000
v -0.799999 2.083466 -0.800000
v -0.799999 2.283467 -0.800000
v 0.800000 2.083466 -0.800000
v 0.800000 2.283467 -0.800000
v -1.000000 1.883466 -1.000000
v -1.000000 2.083466 -1.000000
v 1.000000 1.883466 -1.000000
v 1.000000 2.083466 -1.000000
v -1.200000 1.383466 -1.200000
v -1.200000 1.883466 -1.200000
v 1.200001 1.383466 -1.200000
v 1.200001 1.883466 -1.200000
v -0.299999 -0.016534 -0.300000
v 0.300000 -0.016534 0.300000
v -0.299999 -0.016534 0.300000
v 0.300000 -0.016534 -0.300000
v -0.299999 1.383466 0.300000
v 1.200001 1.383466 1.200000
v -1.200000 1.383466 1.200000
v 0.300000 1.383466 0.300000
v -0.299999 1.383466 -0.300000
v 0.300000 1.383466 -0.300000
v -1.200000 1.383466 -1.200000
v 1.200001 1.383466 -1.200000
v -1.200000 1.883466 1.200000
v 1.200001 1.883466 1.200000
v -1.000000 1.883466 1.000000
v 1.000000 1.883466 1.000000
v -1.000000 1.883466 -1.000000
v 1.000000 1.883466 -1.000000
v -1.200000 1.883466 -1.200000
v 1.200001 1.883466 -1.200000
v -1.000000 2.083466 1.000000
v 1.000000 2.083466 1.000000
v -0.799999 2.083466 0.800000
v 0.800000 2.083466 0.800000
v -0.799999 2.083466 -0.800000
v 0.800000 2.083466 -0.800000
v -1.000000 2.083466 -1.000000
v 1.000000 2.083466 -1.000000
v -0.799999 2.283466 0.800000
v 0.800000 2.283466 0.800000
v -0.700000 2.283466 0.600000
v 0.700001 2.283466 0.600000
v -0.700000 2.283466 -0.600000
v 0.700001 2.283466 -0.600000
v -0.799999 2.283467 -0.800000
v 0.800000 2.283467 -0.800000
v -0.700000 2.483466 0.600000
v 0.700001 2.483466 0.600000
v -0.700000 2.483466 -0.600000
v 0.700001 2.483466 -0.600000
vt 0.720703 0.500000
vt 0.720703 0.500000
vt 0.720703 0.500000
vt 0.720703 0.500000
vt 0.720703 0.500000
vt 0.720703 0.500000
vt 0.720703 0.500000
vt 0.720703 0.500000
vt 0.720703 0.500000
vt 0.720703 0.500000
vt 0.720703 0.500000
vt 0.720703 0.500000
vt 0.720703 0.500000
vt 0.720703 0.500000
vt 0.720703 0.500000
vt 0.720703 0.500000
vt 0.373047 0.500000
vt 0.373047 0.500000
vt 0.373047 0.500000
vt 0.373047 0.500000
vt 0.369141 0.500000
vt 0.369141 0.500000
vt 0.369141 0.500000
vt 0.369141 0.500000
vt 0.373047 0.500000
vt 0.373047 0.500000
vt 0.373047 0.500000
vt 0.373047 0.500000
vt 0.369141 0.500000
vt 0.369141 0.500000
vt 0.369141 0.500000
vt 0.369141 0.500000
vt 0.720703 0.500000
vt 0.720703 0.500000
vt 0.720703 0.500000
vt 0.720703 0.500000
vt 0.720703 0.500000
vt 0.720703 0.500000
vt 0.720703 0.500000
vt 0.720703 0.500000
vt 0.720703 0.500000
vt 0.720703 0.500000
vt 0.720703 0.500000
vt 0.720703 0.500000
vt 0.720703 0.500000
vt 0.720703 0.500000
vt 0.720703 0.500000
vt 0.720703 0.500000
vt 0.720703 0.500000
vt 0.720703 0.500000
vt 0.720703 0.500000
vt 0.720703 0.500000
vt 0.720703 0.500000
vt 0.720703 0.500000
vt 0.720703 0.500000
vt 0.720703 0.500000
vt 0.720703 0.500000
vt 0.720703 0.500000
vt 0.720703 0.500000
vt 0.720703 0.500000
vt 0.720703 0.500000
vt 0.720703 0.500000
vt 0.720703 0.500000
vt 0.720703 0.500000
vt 0.373047 0.500000
vt 0.373047 0.500000
vt 0.373047 0.500000
vt 0.369141 0.500000
vt 0.369141 0.500000
vt 0.369141 0.500000
vt 0.373047 0.500000
vt 0.369141 0.500000
vt 0.373047 0.500000
vt 0.373047 0.500000
vt 0.373047 0.500000
vt 0.369141 0.500000
vt 0.369141 0.500000
vt 0.369141 0.500000
vt 0.373047 0.500000
vt 0.369141 0.500000
vt 0.720703 0.500000
vt 0.720703 0.500000
vt 0.720703 0.500000
vt 0.720703 0.500000
vt 0.720703 0.500000
vt 0.720703 0.500000
vt 0.720703 0.500000
vt 0.720703 0.500000
vt 0.720703 0.500000
vt 0.720703 0.500000
vt 0.720703 0.500000
vt 0.720703 0.500000
vt 0.720703 0.500000
vt 0.720703 0.500000
vt 0.720703 0.500000
vt 0.720703 0.500000
vt 0.373047 0.500000
vt 0.373047 0.500000
vt 0.373047 0.500000
vt 0.373047 0.500000
vt 0.720703 0.500000
vt 0.720703 0.500000
vt 0.720703 0.500000
vt 0.720703 0.500000
vt 0.720703 0.500000
vt 0.720703 0.500000
vt 0.720703 0.500000
vt 0.720703 0.500000
vt 0.720703 0.500000
vt 0.720703 0.500000
vt 0.720703 0.500000
vt 0.720703 0.500000
vt 0.720703 0.500000
vt 0.720703 0.500000
vt 0.720703 0.500000
vt 0.720703 0.500000
vt 0.720703 0.500000
vt 0.720703 0.500000
vt 0.720703 0.500000
vt 0.720703 0.500000
vt 0.720703 0.500000
vt 0.720703 0.500000
vt 0.720703 0.500000
vt 0.720703 0.500000
vt 0.720703 0.500000
vt 0.720703 0.500000
vt 0.720703 0.500000
vt 0.720703 0.500000
vt 0.720703 0.500000
vt 0.720703 0.500000
vt 0.720703 0.500000
vt 0.720703 0.500000
vt 0.720703 0.500000
vt 0.720703 0.500000
vt 0.720703 0.500000
vt 0.720703 0.500000
vn -1.0000 0.0000 0.0000
vn 1.0000 0.0000 0.0000
vn 0.0000 -0.0000 1.0000
vn 0.0000 0.0000 -1.0000
vn 0.0000 -1.0000 -0.0000
vn -0.0000 1.0000 0.0000
usemtl palette.002
s 1
f 1/1/1 2/2/1 3/3/1
f 4/4/1 2/2/1 1/1/1
f 5/5/1 6/6/1 7/7/1
f 8/8/1 6/6/1 5/5/1
f 9/9/1 10/10/1 11/11/1
f 12/12/1 10/10/1 9/9/1
f 13/13/1 14/14/1 15/15/1
f 16/16/1 14/14/1 13/13/1
f 17/17/1 18/18/1 19/19/1
f 20/20/1 18/18/1 17/17/1
f 21/21/1 20/22/1 17/23/1
f 22/24/1 20/22/1 21/21/1
f 23/25/2 24/26/2 25/27/2
f 25/27/2 24/26/2 26/28/2
f 25/29/2 26/30/2 27/31/2
f 27/31/2 26/30/2 28/32/2
f 29/33/2 30/34/2 31/35/2
f 31/35/2 30/34/2 32/36/2
f 33/37/2 34/38/2 35/39/2
f 35/39/2 34/38/2 36/40/2
f 37/41/2 38/42/2 39/43/2
f 39/43/2 38/42/2 40/44/2
f 41/45/2 42/46/2 43/47/2
f 43/47/2 42/46/2 44/48/2
f 45/49/3 46/50/3 47/51/3
f 48/52/3 46/50/3 45/49/3
f 49/53/3 50/54/3 51/55/3
f 52/56/3 50/54/3 49/53/3
f 53/57/3 54/58/3 55/59/3
f 56/60/3 54/58/3 53/57/3
f 57/61/3 58/62/3 59/63/3
f 60/64/3 58/62/3 57/61/3
f 61/65/3 62/66/3 63/67/3
f 64/68/3 65/69/3 62/70/3
f 64/71/3 62/66/3 61/65/3
f 66/72/3 65/69/3 64/68/3
f 67/73/4 68/74/4 69/75/4
f 68/76/4 70/77/4 71/78/4
f 69/75/4 68/74/4 71/79/4
f 71/78/4 70/77/4 72/80/4
f 73/81/4 74/82/4 75/83/4
f 75/83/4 74/82/4 76/84/4
f 77/85/4 78/86/4 79/87/4
f 79/87/4 78/86/4 80/88/4
f 81/89/4 82/90/4 83/91/4
f 83/91/4 82/90/4 84/92/4
f 85/93/4 86/94/4 87/95/4
f 87/95/4 86/94/4 88/96/4
f 89/97/5 90/98/5 91/99/5
f 92/100/5 90/98/5 89/97/5
f 93/101/5 94/102/5 95/103/5
f 96/104/5 94/102/5 93/101/5
f 97/105/5 93/101/5 95/103/5
f 98/106/5 94/102/5 96/104/5
f 99/107/5 97/105/5 95/103/5
f 99/107/5 98/106/5 97/105/5
f 100/108/5 94/102/5 98/106/5
f 100/108/5 98/106/5 99/107/5
f 101/109/6 102/110/6 103/111/6
f 103/111/6 102/110/6 104/112/6
f 101/109/6 103/111/6 105/113/6
f 104/112/6 102/110/6 106/114/6
f 101/109/6 105/113/6 107/115/6
f 105/113/6 106/114/6 107/115/6
f 106/114/6 102/110/6 108/116/6
f 107/115/6 106/114/6 108/116/6
f 109/117/6 110/118/6 111/119/6
f 111/119/6 110/118/6 112/120/6
f 109/117/6 111/119/6 113/121/6
f 112/120/6 110/118/6 114/122/6
f 109/117/6 113/121/6 115/123/6
f 113/121/6 114/122/6 115/123/6
f 114/122/6 110/118/6 116/124/6
f 115/123/6 114/122/6 116/124/6
f 117/125/6 118/126/6 119/127/6
f 119/127/6 118/126/6 120/128/6
f 117/125/6 119/127/6 121/129/6
f 120/128/6 118/126/6 122/130/6
f 117/125/6 121/129/6 123/131/6
f 121/129/6 122/130/6 123/131/6
f 122/130/6 118/126/6 124/132/6
f 123/131/6 122/130/6 124/132/6
f 125/133/6 126/134/6 127/135/6
f 127/135/6 126/134/6 128/136/6
