^C:\USERS\76379\ONEDRIVE\DESKTOP\HOMEWORK\LEARNOPENGL\GRAPHICS FOR GAMES\6) SCENE GRAPH\CUBEROBOT.CPP
/c /ZI /JMC /nologo /W3 /WX- /diagnostics:column /Od /Oy- /D _MBCS /Gm- /EHsc /RTC1 /MDd /GS /fp:precise /Zc:wchar_t /Zc:forScope /Zc:inline /Fo"DEBUG\\" /Fd"DEBUG\VC142.PDB" /Gd /TP /analyze- /FC C:\USERS\76379\ONEDRIVE\DESKTOP\HOMEWORK\LEARNOPENGL\GRAPHICS FOR GAMES\6) SCENE GRAPH\CUBEROBOT.CPP
^C:\USERS\76379\ONEDRIVE\DESKTOP\HOMEWORK\LEARNOPENGL\GRAPHICS FOR GAMES\6) SCENE GRAPH\RENDERER.CPP
/c /ZI /JMC /nologo /W3 /WX- /diagnostics:column /Od /Oy- /D _MBCS /Gm- /EHsc /RTC1 /MDd /GS /fp:precise /Zc:wchar_t /Zc:forScope /Zc:inline /Fo"DEBUG\\" /Fd"DEBUG\VC142.PDB" /Gd /TP /analyze- /FC C:\USERS\76379\ONEDRIVE\DESKTOP\HOMEWORK\LEARNOPENGL\GRAPHICS FOR GAMES\6) SCENE GRAPH\RENDERER.CPP
^C:\USERS\76379\ONEDRIVE\DESKTOP\HOMEWORK\LEARNOPENGL\GRAPHICS FOR GAMES\6) SCENE GRAPH\TUTORIAL6.CPP
/c /ZI /JMC /nologo /W3 /WX- /diagnostics:column /Od /Oy- /D _MBCS /Gm- /EHsc /RTC1 /MDd /GS /fp:precise /Zc:wchar_t /Zc:forScope /Zc:inline /Fo"DEBUG\\" /Fd"DEBUG\VC142.PDB" /Gd /TP /analyze- /FC C:\USERS\76379\ONEDRIVE\DESKTOP\HOMEWORK\LEARNOPENGL\GRAPHICS FOR GAMES\6) SCENE GRAPH\TUTORIAL6.CPP
^H:\DESKTOP\OPENGL\GRAPHICS FOR GAMES\6) SCENE GRAPH\CUBEROBOT.CPP
/c /ZI /JMC /nologo /W3 /WX- /diagnostics:column /Od /Oy- /D _MBCS /Gm- /EHsc /RTC1 /MDd /GS /fp:precise /Zc:wchar_t /Zc:forScope /Zc:inline /Fo"DEBUG\\" /Fd"DEBUG\VC142.PDB" /Gd /TP /analyze- /FC H:\DESKTOP\OPENGL\GRAPHICS FOR GAMES\6) SCENE GRAPH\CUBEROBOT.CPP
^H:\DESKTOP\OPENGL\GRAPHICS FOR GAMES\6) SCENE GRAPH\RENDERER.CPP
/c /ZI /JMC /nologo /W3 /WX- /diagnostics:column /Od /Oy- /D _MBCS /Gm- /EHsc /RTC1 /MDd /GS /fp:precise /Zc:wchar_t /Zc:forScope /Zc:inline /Fo"DEBUG\\" /Fd"DEBUG\VC142.PDB" /Gd /TP /analyze- /FC H:\DESKTOP\OPENGL\GRAPHICS FOR GAMES\6) SCENE GRAPH\RENDERER.CPP
^H:\DESKTOP\OPENGL\GRAPHICS FOR GAMES\6) SCENE GRAPH\TUTORIAL6.CPP
/c /ZI /JMC /nologo /W3 /WX- /diagnostics:column /Od /Oy- /D _MBCS /Gm- /EHsc /RTC1 /MDd /GS /fp:precise /Zc:wchar_t /Zc:forScope /Zc:inline /Fo"DEBUG\\" /Fd"DEBUG\VC142.PDB" /Gd /TP /analyze- /FC H:\DESKTOP\OPENGL\GRAPHICS FOR GAMES\6) SCENE GRAPH\TUTORIAL6.CPP
