^H:\DESKTOP\OPENGL\GRAPHICS FOR GAMES\6) SCENE GRAPH\CUBEROBOT.CPP|H:\DESKTOP\OPENGL\GRAPHICS FOR GAMES\6) SCENE GRAPH\RENDERER.CPP|H:\DESKTOP\OPENGL\GRAPHICS FOR GAMES\6) SCENE GRAPH\TUTORIAL6.CPP
H:\DESKTOP\OPENGL\GRAPHICS FOR GAMES\6) SCENE GRAPH\DEBUG\VC142.PDB
H:\DESKTOP\OPENGL\GRAPHICS FOR GAMES\6) SCENE GRAPH\DEBUG\VC142.IDB
H:\DESKTOP\OPENGL\GRAPHICS FOR GAMES\6) SCENE GRAPH\DEBUG\TUTORIAL6.OBJ
H:\DESKTOP\OPENGL\GRAPHICS FOR GAMES\6) SCENE GRAPH\DEBUG\RENDERER.OBJ
H:\DESKTOP\OPENGL\GRAPHICS FOR GAMES\6) SCENE GRAPH\DEBUG\CUBEROBOT.OBJ
^H:\DESKTOP\OPENGL\GRAPHICS FOR GAMES\6) SCENE GRAPH\CUBEROBOT.CPP
H:\DESKTOP\OPENGL\GRAPHICS FOR GAMES\6) SCENE GRAPH\DEBUG\VC142.PDB
^H:\DESKTOP\OPENGL\GRAPHICS FOR GAMES\6) SCENE GRAPH\RENDERER.CPP
H:\DESKTOP\OPENGL\GRAPHICS FOR GAMES\6) SCENE GRAPH\DEBUG\VC142.PDB
^H:\DESKTOP\OPENGL\GRAPHICS FOR GAMES\6) SCENE GRAPH\TUTORIAL6.CPP
H:\DESKTOP\OPENGL\GRAPHICS FOR GAMES\6) SCENE GRAPH\DEBUG\VC142.PDB
